module gitlab.com/nordic-coder/jwt

go 1.12

require (
	github.com/dgrijalva/jwt-go v3.2.0+incompatible
	github.com/labstack/echo v3.3.10+incompatible
	github.com/labstack/gommon v0.2.8 // indirect
	github.com/mattn/go-colorable v0.1.1 // indirect
	github.com/mattn/go-isatty v0.0.7 // indirect
	github.com/valyala/fasttemplate v1.0.1 // indirect
	golang.org/x/crypto v0.0.0-20190325154230-a5d413f7728c // indirect
)
